<svg viewBox="0 0 172 48" fill="none" xmlns="http://www.w3.org/2000/svg">
<path d="M14.8954 17.6484L14.8456 14.3539L23.0551 9.68483L31.2149 14.4036L31.3627 19.6639L0 19.762L5.26027 28.0695L6.53806 28.0198L6.63614 38.0969L14.8456 43.0131L14.8954 28.0198L18.9746 28.0695L19.0243 45.3728L23.1532 47.732L27.2822 45.3728V28.0695H40.9965L46.2568 19.8103L39.6206 19.7122V9.58675L23.1035 0L6.73421 9.43895L6.58779 17.6968L14.8954 17.6484Z" fill="#18191D"/>
<path d="M31.3627 30.1333L31.4111 42.9637L39.6206 38.2447V30.085L31.3627 30.1333Z" fill="#18191D"/>
<path d="M72.5771 34.4323H60.5013L58.2575 39.9806H50.0166L62.6228 11.423H70.5781L83.225 39.9806H74.8209L72.5771 34.4323ZM70.2109 28.476L66.5392 19.3376L62.8675 28.476H70.2109ZM90.1596 17.8281H81.3884V11.423H106.968V17.8281H98.2374V39.9806H90.1596V17.8281ZM135.76 39.9806L135.679 24.8451L128.335 37.1657H124.745L117.443 25.2531V39.9806H109.977V11.423H116.627L126.663 27.9049L136.454 11.423H143.104L143.185 39.9806H135.76ZM158.937 40.5518C156.625 40.5518 154.382 40.2662 152.206 39.6951C150.03 39.1239 148.262 38.3624 146.902 37.4105L149.554 31.4542C150.832 32.2973 152.314 32.9772 154.001 33.494C155.687 34.0108 157.346 34.2691 158.978 34.2691C162.078 34.2691 163.629 33.494 163.629 31.9437C163.629 31.1278 163.18 30.5294 162.282 30.1487C161.412 29.7407 159.998 29.3191 158.039 28.884C155.891 28.4216 154.096 27.9321 152.654 27.4153C151.213 26.8713 149.976 26.0146 148.942 24.8451C147.908 23.6756 147.392 22.0981 147.392 20.1127C147.392 18.372 147.868 16.8082 148.819 15.4211C149.772 14.0068 151.186 12.8917 153.062 12.0758C154.966 11.2598 157.292 10.8519 160.039 10.8519C161.915 10.8519 163.765 11.0694 165.587 11.5046C167.409 11.9126 169.014 12.5245 170.401 13.3405L167.912 19.3376C165.193 17.8689 162.554 17.1345 159.998 17.1345C158.393 17.1345 157.224 17.3793 156.489 17.8689C155.755 18.3312 155.388 18.9432 155.388 19.7047C155.388 20.4663 155.823 21.0374 156.693 21.4182C157.564 21.7989 158.964 22.1933 160.895 22.6013C163.071 23.0636 164.866 23.5668 166.28 24.1108C167.722 24.6275 168.96 25.4706 169.993 26.6402C171.054 27.7825 171.584 29.3463 171.584 31.3318C171.584 33.0452 171.108 34.5955 170.156 35.9826C169.204 37.3697 167.776 38.4848 165.872 39.3279C163.969 40.1438 161.657 40.5518 158.937 40.5518Z" fill="#18191D"/>
</svg>
