<svg viewBox="0 0 122 52" fill="none" xmlns="http://www.w3.org/2000/svg">
<path d="M6.8476 23.3746C8.95315 23.3746 10.7474 22.624 11.9375 21.2325L10.3996 19.7677C9.46581 20.793 8.31233 21.2874 6.97577 21.2874C4.32095 21.2874 2.39849 19.4199 2.39849 16.7834C2.39849 14.1468 4.32095 12.2793 6.97577 12.2793C8.31233 12.2793 9.46581 12.7737 10.3996 13.7807L11.9375 12.3342C10.7474 10.9427 8.95315 10.1921 6.86591 10.1921C2.92946 10.1921 0 12.9568 0 16.7834C0 20.61 2.92946 23.3746 6.8476 23.3746ZM25.167 23.1915L22.2193 18.9804C23.9586 18.303 24.9473 16.8749 24.9473 14.9341C24.9473 12.0962 22.8601 10.3752 19.4912 10.3752H14.2182V23.1915H16.5984V19.4565H19.4912C19.656 19.4565 19.8208 19.4565 19.9855 19.4382L22.6037 23.1915H25.167ZM22.5488 14.9341C22.5488 16.5453 21.4686 17.4974 19.3813 17.4974H16.5984V12.3892H19.3813C21.4686 12.3892 22.5488 13.3229 22.5488 14.9341ZM37.9775 10.3752H35.634L31.844 16.6186L28.0906 10.3752H25.5457L30.5807 18.7058V23.1915H32.9608V18.6692L37.9775 10.3752ZM44.6304 10.3752H39.3574V23.1915H41.7376V19.4931H44.6304C47.9993 19.4931 50.0866 17.7537 50.0866 14.9341C50.0866 12.0962 47.9993 10.3752 44.6304 10.3752ZM44.5206 17.4791H41.7376V12.3892H44.5206C46.6078 12.3892 47.6881 13.3229 47.6881 14.9341C47.6881 16.5453 46.6078 17.4791 44.5206 17.4791ZM54.6879 23.1915H57.0681V12.3892H61.316V10.3752H50.4402V12.3892H54.6879V23.1915ZM68.9106 23.3746C72.8836 23.3746 75.8131 20.5916 75.8131 16.7834C75.8131 12.9751 72.8836 10.1921 68.9106 10.1921C64.9375 10.1921 62.008 12.9934 62.008 16.7834C62.008 20.5733 64.9375 23.3746 68.9106 23.3746ZM68.9106 21.2874C66.329 21.2874 64.4065 19.4016 64.4065 16.7834C64.4065 14.1652 66.329 12.2793 68.9106 12.2793C71.4922 12.2793 73.4146 14.1652 73.4146 16.7834C73.4146 19.4016 71.4922 21.2874 68.9106 21.2874Z" fill="white"/>
<path d="M17.4119 38.3271C19.1513 37.4116 20.2498 35.7638 20.2498 33.6277C20.2498 30.3016 17.5035 28.074 12.1633 28.074H1.72711V49.4346H12.7736C18.3884 49.4346 21.3179 47.2985 21.3179 43.6062C21.3179 40.9209 19.7921 39.0899 17.4119 38.3271ZM11.553 31.7968C13.9637 31.7968 15.2758 32.6207 15.2758 34.2991C15.2758 35.9774 13.9637 36.8318 11.553 36.8318H6.64005V31.7968H11.553ZM12.4074 45.7117H6.64005V40.4326H12.4074C14.9707 40.4326 16.3439 41.287 16.3439 43.0874C16.3439 44.9183 14.9707 45.7117 12.4074 45.7117ZM41.0199 49.4346H46.2075L36.6562 28.074H31.7738L22.2531 49.4346H27.3186L29.2105 44.8573H39.128L41.0199 49.4346ZM30.7973 41.104L34.1845 32.9259L37.5717 41.104H30.7973ZM63.1322 28.074V41.0429L52.5127 28.074H48.4237V49.4346H53.3061V36.4656L63.9561 49.4346H68.0146V28.074H63.1322ZM87.6853 49.4346H93.4527L84.0845 37.5947L92.9339 28.074H87.4412L77.9815 38.0524V28.074H73.0685V49.4346H77.9815V44.0334L80.8499 41.0429L87.6853 49.4346Z" fill="white"/>
<path d="M88.403 36.648L102.544 22.8096L115.024 39.1144L102.997 51.1899C102.997 51.1899 101.689 52.5482 100.478 51.4417L88.2516 39.2639C88.2516 39.2639 87.2947 37.8048 88.403 36.648Z" fill="white"/>
<path d="M93.9855 40.3016C93.9855 40.3016 96.0489 38.1876 94.0862 36.0738L102.944 26.8644L112.152 36.8276L103.647 45.5854C103.647 45.5854 101.785 43.4715 99.419 45.5854L93.9855 40.3016Z" fill="#18191d"/>
<g opacity="0.13">
<path opacity="0.13" d="M87.6945 15.1769L99.1688 3.70255C99.1688 3.70255 100.729 2.14275 101.885 3.24922L115.976 17.289C115.976 17.289 124.933 26.799 117.032 37.9711L106.212 49.0928C106.212 49.0928 111.194 42.9544 105.81 36.4617L87.4931 18.0446C87.4931 18.0446 86.4367 16.5856 87.6945 15.1769Z" fill="white"/>
</g>
<path d="M89.407 12.3243L100.879 0.849952C100.879 0.849952 102.439 -0.709849 103.597 0.396618L117.687 14.4365C117.687 14.4365 126.644 23.9464 118.742 35.1184L107.925 46.2402C107.925 46.2402 112.903 40.1018 107.53 33.609L89.2056 15.192C89.2056 15.192 88.148 13.733 89.407 12.3243Z" fill="white"/>
<path d="M100.251 6.57322C100.309 6.62075 100.38 6.67575 100.462 6.73444C100.71 6.91135 101.067 7.12573 101.498 7.26801C101.931 7.41066 102.443 7.48237 102.994 7.36589C103.487 7.26174 103.996 7.01015 104.496 6.54847L116.799 19.0167L116.799 19.0168L116.8 19.0172L116.8 19.0179L116.802 19.0194L116.811 19.0289C116.819 19.0376 116.831 19.0508 116.847 19.0684C116.88 19.1036 116.928 19.1566 116.989 19.2263C117.112 19.3656 117.288 19.5719 117.499 19.8375C117.921 20.3688 118.482 21.136 119.037 22.0779C120.147 23.9629 121.218 26.5258 121.124 29.2883L121.121 29.3115C121.117 29.3358 121.11 29.3729 121.101 29.4218C121.083 29.5197 121.053 29.6651 121.008 29.8511C120.917 30.2232 120.763 30.7576 120.511 31.4004C120.009 32.6848 119.119 34.4001 117.569 36.1168L113.368 40.3476C113.423 39.9401 113.464 39.3961 113.439 38.7378C113.378 37.2096 112.957 35.0708 111.526 32.599L111.522 32.5921L111.518 32.5856L111.31 32.7242L111.518 32.5855L111.517 32.5854L111.517 32.585L111.516 32.5835L111.512 32.5778L111.498 32.556C111.485 32.537 111.466 32.5091 111.442 32.4735C111.393 32.4023 111.323 32.2998 111.235 32.1745C111.059 31.9239 110.812 31.5812 110.531 31.2129C109.98 30.4924 109.272 29.6425 108.689 29.2128L95.3135 15.8156C95.3592 15.7571 95.4121 15.6858 95.4686 15.6028C95.6371 15.3554 95.841 14.9998 95.976 14.5715C96.1112 14.1422 96.1788 13.6349 96.0673 13.0904C95.9676 12.6034 95.7272 12.0999 95.2852 11.6059L100.251 6.57322Z" fill="#18191d" stroke="white" stroke-width="0.5"/>
<path d="M102.156 10.169L102.848 10.8605L100.079 13.6297L100.426 13.977C100.522 14.0733 100.638 14.1209 100.773 14.1199C100.91 14.1199 101.025 14.0733 101.118 13.9802L103.543 11.5552L104.234 12.2467L101.465 15.0159L101.813 15.3632C101.907 15.4573 102.021 15.5039 102.156 15.5028C102.293 15.5028 102.408 15.4562 102.5 15.3632L104.926 12.9381L105.62 13.6329L103.687 15.5661C103.365 15.8886 102.97 16.0503 102.504 16.0514C102.04 16.0525 101.645 15.8907 101.321 15.5661L100.426 14.6717L100.537 14.5614C100.33 14.5018 100.129 14.3747 99.9341 14.1799L99.04 13.2855L102.156 10.169ZM103.539 17.785L106.656 14.6685L107.349 15.3616L104.232 18.478L103.539 17.785ZM105.273 19.5185L108.389 16.402L109.776 17.7882C109.965 17.9775 110.059 18.208 110.058 18.4798C110.058 18.7524 109.964 18.9829 109.776 19.1712L109.587 19.3595C109.433 19.5142 109.23 19.6105 108.981 19.6483C108.732 19.6853 108.483 19.5792 108.234 19.3303L108.578 19.6744C108.673 19.7696 108.721 19.8854 108.721 20.0217C108.721 20.1581 108.673 20.2739 108.578 20.3691L107.351 21.5961L106.659 20.9047L107.698 19.8659C107.794 19.7707 107.841 19.6543 107.839 19.5168C107.839 19.3805 107.792 19.2653 107.698 19.1712L107.351 18.8238L105.965 20.21L105.273 19.5185ZM107.695 18.4798L108.042 18.8271C108.137 18.9211 108.251 18.9683 108.388 18.9683C108.527 18.9683 108.643 18.9211 108.737 18.8271L109.084 18.4798C109.178 18.3855 109.224 18.2704 109.222 18.134C109.222 17.9977 109.175 17.8823 109.081 17.7882L108.733 17.441L107.695 18.4798ZM108.041 22.286L111.157 19.1695L112.887 20.8998L112.54 21.2472L111.501 20.2084L110.462 21.2472L111.157 21.942L110.813 22.286L110.118 21.5913L109.08 22.6302L110.118 23.669L109.771 24.0164L108.041 22.286Z" fill="white"/>
<path d="M101.928 41.9757C104.225 41.9757 106.086 40.1142 106.086 37.8178C106.086 35.5214 104.225 33.6598 101.928 33.6598C99.6314 33.6598 97.77 35.5214 97.77 37.8178C97.77 40.1142 99.6314 41.9757 101.928 41.9757Z" fill="white"/>
<path d="M100.101 36.4508H99.267V39.6396H100.101V36.4508Z" fill="#18191d"/>
<path d="M101.597 36.4508H100.763V39.6396H101.597V36.4508Z" fill="#18191d"/>
<path d="M103.093 36.4508H102.259V39.6396H103.093V36.4508Z" fill="#18191d"/>
<path d="M104.589 36.4508H103.755V39.6396H104.589V36.4508Z" fill="#18191d"/>
<path d="M100.212 36.4508H99.1559V37.1438H100.212V36.4508Z" fill="#E0E0E0"/>
<path d="M101.708 36.4508H100.652V37.1438H101.708V36.4508Z" fill="#E0E0E0"/>
<path d="M103.204 36.4508H102.148V37.1438H103.204V36.4508Z" fill="#E0E0E0"/>
<path d="M104.7 36.4508H103.644V37.1438H104.7V36.4508Z" fill="#E0E0E0"/>
<path d="M100.212 39.0658H99.1559V39.7588H100.212V39.0658Z" fill="#E0E0E0"/>
<path d="M101.708 39.0658H100.652V39.7588H101.708V39.0658Z" fill="#E0E0E0"/>
<path d="M103.204 39.0658H102.148V39.7588H103.204V39.0658Z" fill="#E0E0E0"/>
<path d="M104.7 39.0658H103.644V39.7588H104.7V39.0658Z" fill="#E0E0E0"/>
<path d="M99.0724 36.1232L101.928 34.6344L104.784 36.1233L99.0724 36.1232Z" fill="#18191d"/>
<path d="M104.951 36.0447H98.9045V36.8568H104.951V36.0447Z" fill="#E0E0E0"/>
<path d="M104.951 39.3012H98.9045V39.8968H104.951V39.3012Z" fill="#E0E0E0"/>
</svg>
