<svg viewBox="0 0 155 155" fill="none" xmlns="http://www.w3.org/2000/svg">
<path d="M16 0.75C7.57766 0.75 0.75 7.57766 0.75 16V139C0.75 147.422 7.57766 154.25 16 154.25H139C147.422 154.25 154.25 147.422 154.25 139V16C154.25 7.57766 147.422 0.75 139 0.75H16Z" fill="white" stroke="#E0E0E0" stroke-width="0.5"/>
<path d="M62.9012 66.6884L62.8147 60.9596L77.09 52.8407L91.2788 61.0461L91.5358 70.193L37 70.3636L46.147 84.8094L48.3689 84.7229L48.5394 102.246L62.8147 110.794L62.9012 84.7229L69.9944 84.8094L70.0809 114.898L77.2605 119L84.4402 114.898V84.8094H108.288L117.435 70.4476L105.895 70.2771V52.6702L77.1741 36L48.71 52.4131L48.4553 66.7725L62.9012 66.6884Z" fill="#18191D"/>
<path d="M91.5359 88.398L91.62 110.708L105.895 102.503V88.314L91.5359 88.398Z" fill="#18191D"/>
</svg>
